﻿{
  "essl.generator.windows": "https://drive.google.com/uc?export=download&id=1B0jHjCwdTQowr4ku6QRen_iizlCDore2",
  "essl.generator.mac": "https://drive.google.com/uc?export=download&id=1WTjLyVZHWTPj8PYWI3whz34HN0dKUBTY",
  "essl.generator.linux": "https://drive.google.com/uc?export=download&id=1kLD0xOEGaOVCQa3a1TJ7m0mxF9fUzVnu",
  "essl.extension": "https://drive.google.com/uc?export=download&id=14drxZYAdEBZIFa7iHYmEaiElt6eM9RIa",
  "essl.source": "https://bitbucket.org/sweetbridge/essl.combinedsource/src/master/",
  "axe.extension": "https://drive.google.com/uc?export=download&id=1oe2WUUPt5I6zeI2mvewB6DLEsv-BJB8A"
}